<svg xmlns="http://www.w3.org/2000/svg" width="162" height="58" viewBox="0 0 162 58" xmlns:xlink="http://www.w3.org/1999/xlink">
  <defs>
    <polygon id="a" points="161.119 .698 161.119 58 0 58 0 .698 161.119 .698"/>
  </defs>
  <g fill="none" fill-rule="evenodd" transform="translate(0 -1)">
    <path fill="#FFFFFF" d="M144.0576,16.3125 C142.9886,16.3125 142.5376,17.2835 142.4676,17.9865 L145.4786,17.9865 C145.4936,17.3535 145.2106,16.3125 144.0576,16.3125 L144.0576,16.3125 Z M76.7476,20.0685 C76.7476,20.7445 77.1846,21.0545 77.7326,21.0545 C78.4366,21.0545 78.9286,20.6045 79.0976,20.1115 C79.1396,19.9845 79.1396,19.8575 79.1396,19.7305 L79.1396,18.7895 C77.9156,18.7745 76.7476,19.0275 76.7476,20.0685 L76.7476,20.0685 Z M110.0506,16.3825 C108.8266,16.3825 108.3336,17.5785 108.3336,18.7175 C108.3336,20.0415 108.9946,21.0405 110.0366,21.0405 C111.0216,21.0405 111.7106,20.0835 111.7106,18.6905 C111.7106,17.6205 111.2326,16.3825 110.0506,16.3825 L110.0506,16.3825 Z M98.4236,16.3125 C97.3546,16.3125 96.9046,17.2835 96.8336,17.9865 L99.8446,17.9865 C99.8586,17.3535 99.5776,16.3125 98.4236,16.3125 L98.4236,16.3125 Z M85.9666,16.4805 C85.2636,16.4805 84.6166,16.9875 84.4336,17.7475 C84.4046,17.8745 84.3756,18.0285 84.3756,18.1975 L84.3756,19.3095 C84.3756,19.4495 84.3906,19.5905 84.4186,19.7175 C84.6016,20.4205 85.2066,20.9275 85.9526,20.9275 C87.0366,20.9275 87.6976,20.0685 87.6976,18.6765 C87.6976,17.4665 87.1196,16.4805 85.9666,16.4805 L85.9666,16.4805 Z M147.0676,38.8585 L138.1976,38.8585 C138.2326,40.1705 138.6616,41.1705 139.4856,41.8635 C140.2316,42.4855 141.1976,42.7955 142.3846,42.7955 C143.7016,42.7955 144.8936,42.5865 145.9706,42.1615 L146.4366,44.2165 C145.1816,44.7685 143.6916,45.0365 141.9716,45.0365 C139.9136,45.0365 138.2936,44.4325 137.1176,43.2195 C135.9416,42.0065 135.3476,40.3775 135.3476,38.3355 C135.3476,36.3255 135.8986,34.6595 136.9906,33.3215 C138.1456,31.8995 139.6966,31.1895 141.6456,31.1895 C143.5676,31.1895 145.0156,31.8995 145.9976,33.3215 C146.7806,34.4565 147.1746,35.8535 147.1746,37.5145 C147.1746,38.0405 147.1366,38.4875 147.0676,38.8585 L147.0676,38.8585 Z M134.8666,18.0285 L134.8666,22.1375 L133.1366,22.1375 L133.1366,12.1475 L134.8666,12.1475 L134.8666,16.2135 L134.8946,16.2135 C135.1056,15.8905 135.4016,15.6235 135.7526,15.4405 C136.1046,15.2425 136.5126,15.1305 136.9496,15.1305 C138.1176,15.1305 139.3416,15.9035 139.3416,18.0995 L139.3416,22.1375 L137.6106,22.1375 L137.6106,18.2825 C137.6106,17.2975 137.2446,16.5375 136.2876,16.5375 C135.6126,16.5375 135.1336,16.9875 134.9376,17.5085 C134.8806,17.6635 134.8666,17.8455 134.8666,18.0285 L134.8666,18.0285 Z M134.4176,34.0885 C134.1266,34.0365 133.8136,34.0135 133.4876,34.0135 C132.4476,34.0135 131.6466,34.4065 131.0786,35.1885 C130.5846,35.8835 130.3396,36.7475 130.3396,37.8135 L130.3396,44.7925 L127.3836,44.7925 L127.3836,35.6735 C127.3836,34.1495 127.3576,32.7525 127.3046,31.4895 L129.8766,31.4895 L129.9876,34.0365 L130.0686,34.0365 C130.3766,33.1635 130.8676,32.4585 131.5456,31.9325 C132.2036,31.4535 132.9176,31.2225 133.6836,31.2225 C133.9546,31.2225 134.2036,31.2375 134.4176,31.2725 L134.4176,34.0885 Z M126.8296,15.2855 L127.8006,15.2855 L127.8006,14.0045 L129.5036,13.5255 L129.5036,15.2855 L131.1496,15.2855 L131.1496,16.5795 L129.5036,16.5795 L129.5036,19.6045 C129.5036,20.4495 129.7286,20.8715 130.3896,20.8715 C130.6996,20.8715 130.8686,20.8565 131.0656,20.8005 L131.0936,22.1085 C130.8396,22.2075 130.3756,22.2925 129.8416,22.2925 C129.1946,22.2925 128.6726,22.0815 128.3496,21.7295 C127.9696,21.3355 127.8006,20.7025 127.8006,19.8015 L127.8006,16.5795 L126.8296,16.5795 L126.8296,15.2855 Z M123.7756,43.0735 C122.5486,44.4195 120.9246,45.0935 118.9046,45.0935 C116.9486,45.0935 115.3876,44.4475 114.2306,43.1515 C113.0736,41.8585 112.4956,40.2185 112.4956,38.2505 C112.4956,36.1905 113.0916,34.5005 114.2866,33.1885 C115.4846,31.8705 117.0896,31.2215 119.1156,31.2215 C121.0756,31.2215 122.6426,31.8635 123.8286,33.1655 C124.9566,34.4165 125.5236,36.0455 125.5236,38.0335 C125.5236,40.0835 124.9436,41.7545 123.7756,43.0735 L123.7756,43.0735 Z M109.9806,22.2925 C108.0526,22.2925 106.5466,20.9695 106.5466,18.7605 C106.5466,16.5095 108.0246,15.1305 110.0926,15.1305 C112.1326,15.1305 113.4976,16.5655 113.4976,18.6475 C113.4976,21.1665 111.7246,22.2925 109.9806,22.2925 L109.9806,22.2925 Z M111.6476,33.7045 L108.3846,33.7045 L108.3846,40.1705 C108.3846,41.8115 108.9636,42.6255 110.1146,42.6255 C110.6436,42.6255 111.0776,42.5865 111.4266,42.4975 L111.5106,44.7365 C110.9256,44.9555 110.1616,45.0655 109.2116,45.0655 C108.0496,45.0655 107.1306,44.7145 106.4766,43.9985 C105.8136,43.2905 105.4866,42.0925 105.4866,40.4145 L105.4866,33.7045 L103.5446,33.7045 L103.5446,31.4895 L105.4866,31.4895 L105.4866,29.0545 L108.3846,28.1785 L108.3846,31.4895 L111.6476,31.4895 L111.6476,33.7045 Z M101.2266,43.4505 C100.0186,44.5285 98.3456,45.0635 96.1996,45.0635 C94.2096,45.0635 92.6196,44.6785 91.4176,43.9165 L92.1046,41.4535 C93.3996,42.2155 94.8216,42.6025 96.3696,42.6025 C97.4876,42.6025 98.3516,42.3485 98.9726,41.8505 C99.5896,41.3505 99.9006,40.6805 99.9006,39.8315 C99.9006,39.0925 99.6446,38.4625 99.1366,37.9495 C98.6206,37.4385 97.7796,36.9675 96.5916,36.5265 C93.3656,35.3255 91.7486,33.5635 91.7486,31.2475 C91.7486,29.7315 92.3126,28.4885 93.4546,27.5215 C94.5956,26.5575 96.1056,26.0725 97.9876,26.0725 C99.6646,26.0725 101.0616,26.3665 102.1766,26.9465 L101.4306,29.3555 C100.3906,28.7915 99.2086,28.5055 97.8906,28.5055 C96.8486,28.5055 96.0316,28.7705 95.4436,29.2695 C94.9526,29.7315 94.7046,30.2895 94.7046,30.9445 C94.7046,31.6685 94.9886,32.2735 95.5526,32.7545 C96.0466,33.1905 96.9416,33.6635 98.2326,34.1725 C99.8256,34.8065 100.9896,35.5595 101.7406,36.4195 C102.4866,37.2775 102.8626,38.3425 102.8626,39.6185 C102.8626,41.1885 102.3136,42.4695 101.2266,43.4505 L101.2266,43.4505 Z M86.3466,22.2925 C85.4596,22.2925 84.6716,21.9555 84.1796,21.1105 L84.1516,21.1105 L84.0676,22.1375 L82.5896,22.1375 C82.6186,21.6725 82.6466,20.9135 82.6466,20.2095 L82.6466,12.1475 L84.3756,12.1475 L84.3756,16.2275 L84.4046,16.2275 C84.8266,15.5665 85.5726,15.1305 86.5996,15.1305 C88.2746,15.1305 89.4696,16.5235 89.4556,18.6055 C89.4556,21.0685 87.8946,22.2925 86.3466,22.2925 L86.3466,22.2925 Z M84.3166,43.3465 C83.2146,44.5095 81.8506,45.0935 80.2156,45.0935 C78.4546,45.0935 77.1896,44.4655 76.4206,43.2025 L76.4206,50.1885 L73.4636,50.1885 L73.4636,35.8615 C73.4636,34.4385 73.4256,32.9835 73.3546,31.4895 L75.9486,31.4895 L76.1196,33.5965 L76.1696,33.5965 C77.1616,32.0145 78.6536,31.2215 80.6606,31.2215 C82.2306,31.2215 83.5396,31.8365 84.5886,33.0815 C85.6406,34.3195 86.1636,35.9565 86.1636,37.9795 C86.1636,40.2495 85.5496,42.0305 84.3166,43.3465 L84.3166,43.3465 Z M71.0486,22.1375 L72.7776,22.1375 L72.7776,12.1485 L71.0486,12.1485 L71.0486,22.1375 Z M69.7016,43.3465 C68.6026,44.5095 67.2326,45.0935 65.6016,45.0935 C63.8356,45.0935 62.5726,44.4655 61.8036,43.2025 L61.8036,50.1885 L58.8496,50.1885 L58.8496,35.8615 C58.8496,34.4385 58.8116,32.9835 58.7366,31.4895 L61.3366,31.4895 L61.4996,33.5965 L61.5516,33.5965 C62.5416,32.0145 64.0366,31.2215 66.0456,31.2215 C67.6156,31.2215 68.9206,31.8365 69.9766,33.0815 C71.0226,34.3195 71.5486,35.9565 71.5486,37.9795 C71.5486,40.2495 70.9346,42.0305 69.7016,43.3465 L69.7016,43.3465 Z M58.1266,20.2515 C58.1266,18.5355 59.6606,17.6485 62.1936,17.6635 L62.1936,17.5505 C62.1936,17.1005 62.0096,16.3545 60.7996,16.3545 C60.1236,16.3545 59.4216,16.5655 58.9566,16.8615 L58.6196,15.7355 C59.1246,15.4255 60.0116,15.1305 61.0956,15.1305 C63.2896,15.1305 63.9236,16.5235 63.9236,18.0285 L63.9236,20.4915 C63.9236,21.1105 63.9516,21.7155 64.0366,22.1375 L62.4736,22.1375 L62.3476,21.3775 L62.3056,21.3775 C61.8976,21.9125 61.1796,22.2925 60.2796,22.2925 C58.9006,22.2925 58.1266,21.2935 58.1266,20.2515 L58.1266,20.2515 Z M54.5646,22.1375 L52.8616,22.1375 L50.3146,15.2855 L52.1866,15.2855 L53.2966,18.7605 C53.4946,19.3655 53.6346,19.9145 53.7616,20.4775 L53.8046,20.4775 C53.9306,19.9145 54.0856,19.3785 54.2686,18.7605 L55.3666,15.2855 L57.1816,15.2855 L54.5646,22.1375 Z M53.8926,44.7925 L52.1696,39.3775 L46.1736,39.3775 L44.5296,44.7925 L41.4666,44.7925 L47.4016,26.3445 L51.0736,26.3445 L57.0426,44.7925 L53.8926,44.7925 Z M33.0036,44.0995 C33.0036,45.7705 31.6416,47.1245 29.9716,47.1245 L16.9766,47.1245 C15.3046,47.1245 13.9426,45.7705 13.9426,44.0995 L13.9426,15.2225 C13.9426,13.5515 15.3046,12.1935 16.9766,12.1935 L29.9716,12.1935 C31.6416,12.1935 33.0036,13.5515 33.0036,15.2225 L33.0036,44.0995 Z M44.5286,12.6535 L46.7376,12.6535 L49.8186,22.1375 L47.9476,22.1375 L47.0896,19.4495 L44.0916,19.4495 L43.2756,22.1375 L41.4886,22.1375 L44.5286,12.6535 Z M66.6006,22.1375 L68.3296,22.1375 L68.3296,15.2855 L66.6006,15.2855 L66.6006,22.1375 Z M67.4726,12.4285 C68.0636,12.4285 68.4296,12.8375 68.4436,13.3715 C68.4436,13.8775 68.0636,14.3005 67.4576,14.3005 C66.8806,14.3005 66.5016,13.8775 66.5016,13.3715 C66.5016,12.8375 66.8956,12.4285 67.4726,12.4285 L67.4726,12.4285 Z M77.7046,16.3545 C77.0296,16.3545 76.3266,16.5655 75.8626,16.8615 L75.5246,15.7355 C76.0306,15.4255 76.9166,15.1305 77.9996,15.1305 C80.1956,15.1305 80.8286,16.5235 80.8286,18.0285 L80.8286,20.4915 C80.8286,21.1105 80.8566,21.7155 80.9406,22.1375 L79.3786,22.1375 L79.2526,21.3775 L79.2106,21.3775 C78.8026,21.9125 78.0846,22.2925 77.1846,22.2925 C75.8046,22.2925 75.0316,21.2935 75.0316,20.2515 C75.0316,18.5355 76.5646,17.6485 79.0976,17.6635 L79.0976,17.5505 C79.0976,17.1005 78.9136,16.3545 77.7046,16.3545 L77.7046,16.3545 Z M91.4296,22.1365 L93.1586,22.1365 L93.1586,12.1475 L91.4296,12.1475 L91.4296,22.1365 Z M98.5226,15.1305 C100.7446,15.1305 101.4776,16.9595 101.4776,18.4655 C101.4776,18.7895 101.4496,19.0425 101.4206,19.1965 L96.8336,19.1965 C96.8756,20.4345 97.8326,20.9695 98.9446,20.9695 C99.7456,20.9695 100.3086,20.8435 100.8436,20.6595 L101.0966,21.8425 C100.5056,22.0945 99.6906,22.2775 98.7046,22.2775 C96.4826,22.2775 95.1736,20.9135 95.1736,18.8175 C95.1736,16.9165 96.3276,15.1305 98.5226,15.1305 L98.5226,15.1305 Z M116.6956,15.2855 L116.7796,16.3125 L116.8226,16.3125 C117.1306,15.7775 117.8766,15.1305 119.0166,15.1305 C120.2126,15.1305 121.4516,15.9035 121.4516,18.0705 L121.4516,22.1375 L119.7206,22.1375 L119.7206,18.2675 C119.7206,17.2835 119.3546,16.5375 118.4116,16.5375 C117.7226,16.5375 117.2446,17.0295 117.0606,17.5505 C117.0036,17.6915 116.9766,17.9025 116.9766,18.0995 L116.9766,22.1375 L115.2456,22.1375 L115.2456,17.3255 C115.2456,16.5375 115.2176,15.8765 115.1896,15.2855 L116.6956,15.2855 Z M144.1566,15.1305 C146.3786,15.1305 147.1116,16.9595 147.1116,18.4655 C147.1116,18.7895 147.0826,19.0425 147.0546,19.1965 L142.4676,19.1965 C142.5096,20.4345 143.4666,20.9695 144.5786,20.9695 C145.3796,20.9695 145.9436,20.8435 146.4776,20.6595 L146.7306,21.8425 C146.1396,22.0945 145.3246,22.2775 144.3386,22.2775 C142.1166,22.2775 140.8076,20.9135 140.8076,18.8175 C140.8076,16.9165 141.9606,15.1305 144.1566,15.1305 L144.1566,15.1305 Z M46.0626,15.8055 C45.8786,15.2285 45.7246,14.5815 45.5836,14.0335 L45.5546,14.0335 C45.4146,14.5815 45.2596,15.2425 45.1046,15.8055 L44.3736,18.1415 L46.8076,18.1415 L46.0626,15.8055 Z M62.1936,20.1115 C62.2346,19.9845 62.2346,19.8575 62.2346,19.7305 L62.2346,18.7895 C61.0106,18.7745 59.8436,19.0275 59.8436,20.0685 C59.8436,20.7445 60.2796,21.0545 60.8286,21.0545 C61.5316,21.0545 62.0236,20.6045 62.1936,20.1115 L62.1936,20.1115 Z M141.4266,33.2395 C140.4616,33.2395 139.6776,33.6515 139.0736,34.4495 C138.5806,35.0855 138.2866,35.8535 138.1976,36.7435 L144.3556,36.7435 C144.3706,35.8705 144.1836,35.1165 143.7836,34.4735 C143.2696,33.6565 142.4836,33.2395 141.4266,33.2395 L141.4266,33.2395 Z M49.1566,28.8095 L49.1046,28.8095 C48.9186,29.5935 48.6306,30.7505 48.2256,32.2855 L46.6926,37.1035 L51.6456,37.1035 L50.0916,32.2855 C49.9236,31.7905 49.6106,30.6305 49.1566,28.8095 L49.1566,28.8095 Z M79.7036,33.5675 C78.9706,33.5675 78.3166,33.8075 77.7206,34.2915 C77.1276,34.7815 76.7386,35.4155 76.5546,36.2005 C76.4636,36.5675 76.4206,36.8665 76.4206,37.1045 L76.4206,39.3195 C76.4206,40.2885 76.7126,41.1065 77.3086,41.7725 C77.9006,42.4325 78.6726,42.7675 79.6176,42.7675 C80.7366,42.7675 81.6016,42.3415 82.2226,41.4815 C82.8446,40.6245 83.1566,39.4935 83.1566,38.0835 C83.1566,36.7915 82.8626,35.7225 82.2806,34.8855 C81.6366,34.0135 80.7786,33.5675 79.7036,33.5675 L79.7036,33.5675 Z M119.0066,33.3835 C117.8246,33.3835 116.9196,33.9095 116.3026,34.9655 C115.7676,35.8355 115.5056,36.8975 115.5056,38.1545 C115.5056,39.3775 115.7676,40.4215 116.3026,41.2935 C116.9356,42.3485 117.8296,42.8745 118.9856,42.8745 C120.1096,42.8745 120.9976,42.3415 121.6326,41.2605 C122.1846,40.3775 122.4586,39.3195 122.4586,38.1025 C122.4586,36.8855 122.1956,35.8355 121.6686,34.9655 C121.0396,33.9095 120.1586,33.3835 119.0066,33.3835 L119.0066,33.3835 Z M65.0836,33.5675 C64.3556,33.5675 63.6976,33.8075 63.1026,34.2915 C62.5076,34.7815 62.1216,35.4155 61.9386,36.2005 C61.8486,36.5675 61.8036,36.8665 61.8036,37.1045 L61.8036,39.3195 C61.8036,40.2885 62.0946,41.1065 62.6916,41.7725 C63.2836,42.4325 64.0556,42.7675 65.0026,42.7675 C66.1136,42.7675 66.9866,42.3415 67.6056,41.4815 C68.2256,40.6245 68.5336,39.4935 68.5336,38.0835 C68.5336,36.7915 68.2446,35.7225 67.6606,34.8855 C67.0186,34.0135 66.1616,33.5675 65.0836,33.5675 L65.0836,33.5675 Z M15.7856,41.0355 L31.1616,41.0355 L31.1616,18.2945 L15.7856,18.2945 L15.7856,41.0355 Z M23.4716,42.3775 C22.6096,42.3775 21.9066,43.0835 21.9066,43.9485 C21.9066,44.8115 22.6096,45.5145 23.4716,45.5145 C24.3376,45.5145 25.0386,44.8115 25.0386,43.9485 C25.0386,43.0835 24.3376,42.3775 23.4716,42.3775 L23.4716,42.3775 Z M21.9656,15.9745 L24.9786,15.9745 C25.1756,15.9745 25.3366,15.8125 25.3366,15.6235 C25.3366,15.4235 25.1756,15.2625 24.9786,15.2625 L21.9656,15.2625 C21.7746,15.2625 21.6106,15.4235 21.6106,15.6235 C21.6106,15.8125 21.7746,15.9745 21.9656,15.9745 L21.9656,15.9745 Z"/>
    <g transform="translate(0 .302)">
      <mask id="b" fill="white">
        <use xlink:href="#a"/>
      </mask>
      <path fill="#FFFFFF" d="M7.7236,2.6982 C4.5676,2.6982 1.9996,5.2662 1.9996,8.4222 L1.9996,50.2852 C1.9996,53.4362 4.5676,56.0002 7.7236,56.0002 L153.3946,56.0002 C156.5506,56.0002 159.1196,53.4362 159.1196,50.2852 L159.1196,8.4222 C159.1196,5.2662 156.5506,2.6982 153.3946,2.6982 L7.7236,2.6982 Z M153.3946,58.0002 L7.7236,58.0002 C3.4646,58.0002 -0.0004,54.5392 -0.0004,50.2852 L-0.0004,8.4222 C-0.0004,4.1632 3.4646,0.6982 7.7236,0.6982 L153.3946,0.6982 C157.6546,0.6982 161.1196,4.1632 161.1196,8.4222 L161.1196,50.2852 C161.1196,54.5392 157.6546,58.0002 153.3946,58.0002 L153.3946,58.0002 Z" mask="url(#b)"/>
    </g>
  </g>
</svg>
